Assignment 3/Code/ass3.vcd
$date
	Thu Mar 31 18:08:45 2022
$end
$version
	Icarus Verilog
$end
$timescale
	1s
$end
$scope module ass3_testbench $end
$var wire 1 ! y_out $end
$var wire 3 " qn [2:0] $end
$var reg 1 # clk $end
$var reg 3 $ q [2:0] $end
$var reg 1 % reset $end
$var reg 1 & x_in $end
$scope module DUT $end
$var wire 1 # clk $end
$var wire 3 ' q [2:0] $end
$var wire 1 % reset $end
$var wire 1 & x_in $end
$var wire 1 ! y_out $end
$var wire 3 ( qn [2:0] $end
$scope module D1 $end
$var wire 1 # clk $end
$var wire 1 ) d $end
$var wire 1 % reset $end
$var reg 1 * qn $end
$var reg 1 + qnbar $end
$upscope $end
$scope module D2 $end
$var wire 1 # clk $end
$var wire 1 , d $end
$var wire 1 % reset $end
$var reg 1 - qn $end
$var reg 1 . qnbar $end
$upscope $end
$scope module D3 $end
$var wire 1 # clk $end
$var wire 1 / d $end
$var wire 1 % reset $end
$var reg 1 0 qn $end
$var reg 1 1 qnbar $end
$upscope $end
$upscope $end
$upscope $end
$enddefinitions $end
#0
$dumpvars
11
00
1/
1.
0-
0,
1+
0*
0)
b0 (
b0 '
1&
0%
b0 $
0#
b0 "
1!
$end
#5
01
b1 "
b1 (
10
1#
#10
0#
#15
0!
0/
b1 $
b1 '
1#
#20
0#
#25
11
b0 "
b0 (
00
1#
#30
0#
#35
1!
1/
b0 $
b0 '
1#
#40
0/
0!
0#
0&
#45
1#
#50
0#
#55
1#
#60
0#
#65
1#
#70
0#
#75
1#
#80
1/
1!
0#
1&
#85
01
b1 "
b1 (
10
1#
#90
0#
#95
0!
0/
b1 $
b1 '
1#
#100
0#
#105
11
b0 "
b0 (
00
1#
#110
0#
#115
1!
1/
b0 $
b0 '
1#
#120
0/
0!
0#
0&
#125
1#
#130
0#
#135
1#
#140
0#
#145
1#
#150
0#
#155
1#
#160
1/
1!
0#
1&
#165
01
b1 "
b1 (
10
1#
#170
0#
#175
0!
0/
b1 $
b1 '
1#
#180
0#
#185
11
b0 "
b0 (
00
1#
#190
0#
#195
1!
1/
b0 $
b0 '
1#
#200
0/
0!
0#
0&
#205
1#
#210
0#
#215
1#
#220
0#
#225
1#
#230
0#
#235
1#
#240
1/
1!
0#
1&
#245
01
b1 "
b1 (
10
1#
#250
0#
#255
0!
0/
b1 $
b1 '
1#
#260
0#
#265
11
b0 "
b0 (
00
1#
#270
0#
#275
1!
1/
b0 $
b0 '
1#
#280
0/
0!
0#
0&
